%YAML 1.1
%TAG !u! tag:unity3d.com,2011:
--- !u!114 &11400000
MonoBehaviour:
  m_ObjectHideFlags: 0
  m_CorrespondingSourceObject: {fileID: 0}
  m_PrefabInstance: {fileID: 0}
  m_PrefabAsset: {fileID: 0}
  m_GameObject: {fileID: 0}
  m_Enabled: 1
  m_EditorHideFlags: 0
  m_Script: {fileID: 11500000, guid: bbb281ee3bf0b054c82ac2347e9e782c, type: 3}
  m_Name: Assembly-B
  m_EditorClassIdentifier: 
  m_GroupName: Assembly-B
  m_Data:
    m_SerializedData: []
  m_GUID: a27bf44b3efcc00418edf7c510468f76
  m_SerializeEntries:
  - m_GUID: e05dc08c5e6759e48a72a3e359aaae28
    m_Address: Assets/Core/ModuleB/Media/Materials/BMaterial 3.mat
    m_ReadOnly: 0
    m_SerializedLabels: []
    FlaggedDuringContentUpdateRestriction: 0
  - m_GUID: 3af34aa86fa13bb4e99a447c18f9d4a6
    m_Address: Assets/Core/ModuleB/Media/Materials/BMaterial 2.mat
    m_ReadOnly: 0
    m_SerializedLabels: []
    FlaggedDuringContentUpdateRestriction: 0
  - m_GUID: fb1fda69a4a14934ebe0fd4b7788fe04
    m_Address: Assets/Core/ModuleB/Media/Materials/BMaterial 4.mat
    m_ReadOnly: 0
    m_SerializedLabels: []
    FlaggedDuringContentUpdateRestriction: 0
  - m_GUID: fd128d7ae1d77e247a3b3a9a99fc585c
    m_Address: Assets/Core/ModuleB/Media/Materials/BMaterial 1.mat
    m_ReadOnly: 0
    m_SerializedLabels: []
    FlaggedDuringContentUpdateRestriction: 0
  - m_GUID: 1f078f05d52c8a2488059548324b58c5
    m_Address: Assets/Core/ModuleB/Media/Materials/BMaterial.mat
    m_ReadOnly: 0
    m_SerializedLabels: []
    FlaggedDuringContentUpdateRestriction: 0
  - m_GUID: 82e563a32ae76044a977e1ce929a9e19
    m_Address: ComplexShape
    m_ReadOnly: 0
    m_SerializedLabels: []
    FlaggedDuringContentUpdateRestriction: 0
  m_ReadOnly: 0
  m_Settings: {fileID: 11400000, guid: ad8f4a9f0073048488cb0a64f28cf1eb, type: 2}
  m_SchemaSet:
    m_Schemas:
    - {fileID: 11400000, guid: 0f2a73317d16b454cbe1cdca1fcc5fcd, type: 2}
    - {fileID: 11400000, guid: 4bc575dd99e68bb438156c444d3ec5bd, type: 2}
    - {fileID: 11400000, guid: 0fd49f3a1fabbc1498a3396c16bd9ce4, type: 2}
